{
    "cryptonite": {
        "branch": "master",
        "owner": "haskell-crypto",
        "repo": "cryptonite",
        "rev": "8698c9fd940403f39387291a377aefc4bb1f1d7d",
        "sha256": "0zhnkzgay4xpvqir110ywcn939d7pymx9v231y0gspjyzvg5zm2m",
        "type": "tarball",
        "url": "https://github.com/haskell-crypto/cryptonite/archive/refs/tags/cryptonite-v0.29.tar.gz"
    },
    "memory": {
        "branch": "master",
        "owner": "vincenthz",
        "repo": "memory",
        "rev": "f868c5baf54c98278556d38933537a410afe1dab",
        "sha256": "12nvrsrb1pdkif8nykiaby4sksry3kxq1j89z6x67h66232h5ril",
        "type": "tarball",
        "url": "https://github.com/vincenthz/hs-memory/archive/refs/tags/memory-v0.16.0.tar.gz"
    },
    "niv": {
        "branch": "master",
        "description": "Easy dependency management for Nix projects",
        "homepage": "https://github.com/nmattia/niv",
        "owner": "nmattia",
        "repo": "niv",
        "rev": "1819632b5823e0527da28ad82fecd6be5136c1e9",
        "sha256": "08jz17756qchq0zrqmapcm33nr4ms9f630mycc06i6zkfwl5yh5i",
        "type": "tarball",
        "url": "https://github.com/nmattia/niv/archive/1819632b5823e0527da28ad82fecd6be5136c1e9.tar.gz",
        "url_template": "https://github.com/<owner>/<repo>/archive/<rev>.tar.gz"
    },
    "nixpkgs": {
        "branch": "release-21.05",
        "description": "Nix Packages collection",
        "homepage": "",
        "owner": "NixOS",
        "repo": "nixpkgs",
        "rev": "aa576357673d609e618d87db43210e49d4bb1789",
        "sha256": "1868s3mp0lwg1jpxsgmgijzddr90bjkncf6k6zhdjqihf0i1n2np",
        "type": "tarball",
        "url": "https://github.com/NixOS/nixpkgs/archive/aa576357673d609e618d87db43210e49d4bb1789.tar.gz",
        "url_template": "https://github.com/<owner>/<repo>/archive/<rev>.tar.gz"
    },
    "persistent": {
        "branch": "master",
        "description": "Persistence interface for Haskell allowing multiple storage methods.",
        "homepage": "",
        "owner": "yesodweb",
        "repo": "persistent",
        "rev": "62596ba28dc3c9a069fa8677e597e4390333379c",
        "sha256": "12mfk0y7q5cgdxldiqq4fkf7cdcmk4clsl8x1kg1nn3cri0nspxx",
        "type": "tarball",
        "url": "https://github.com/yesodweb/persistent/archive/62596ba28dc3c9a069fa8677e597e4390333379c.tar.gz",
        "url_template": "https://github.com/<owner>/<repo>/archive/<rev>.tar.gz"
    },
    "relude": {
        "branch": "main",
        "description": "🌀 Safe, performant, user-friendly and lightweight Haskell standard library",
        "homepage": "https://kowainik.github.io/projects/relude",
        "owner": "kowainik",
        "repo": "relude",
        "rev": "442a51ca272f588c54abe86ca7acb79e456109b5",
        "sha256": "0vzka3rsapx7l1zxvc75wfzrpf4wnl6h0fxr0z5q21h1mmhd973p",
        "type": "tarball",
        "url": "https://github.com/kowainik/relude/archive/442a51ca272f588c54abe86ca7acb79e456109b5.tar.gz",
        "url_template": "https://github.com/<owner>/<repo>/archive/<rev>.tar.gz"
    }
}
